sentiment.utf8
…
# Pre-proccessing

Lets visualize our stock1 and stock2

stock1

## # A tibble: 100 x 90
##    user_id   status_id   created_at          screen_name  text           source 
##    <chr>     <chr>       <dttm>              <chr>        <chr>          <chr>  
##  1 15914857  1375522254 2021-03-26 18:57:16 mirazaslove  "@NStocks96 I Twitte
##  2 11899893 1375522198 2021-03-26 18:57:02 wannabe_tra "Make or brea Twitte
##  3 70637179 1375522172 2021-03-26 18:56:56 joemarchand1 "Ohhhhh. They Twitte
##  4 12903246 1375521974 2021-03-26 18:56:09 SvitlanaHeg "$AAPL \nWat StockT
##  5 19455355 1375521709 2021-03-26 18:55:06 Claytonimor  "@CashApp $Ha Twitte
##  6 13755213 1375521702 2021-03-26 18:55:04 guidebates   "$NFLX $SPY $ Twitte
##  7 12325251 1375521674 2021-03-26 18:54:57 JoTrader4    "@ShoucairHas Twitte
##  8 25487510 1375521605 2021-03-26 18:54:41 TheSuperTra "Anybody see  Twitte
##  9 96349562 1375521465 2021-03-26 18:54:08 StckPro      "$AAPL $TSLA  STCK.P
## 10 55057663  1375521448 2021-03-26 18:54:03 emantradess  "$fubo $pltr  Twitte
## #  with 90 more rows, and 84 more variables: display_text_width <dbl>,
## #   reply_to_status_id <chr>, reply_to_user_id <chr>,
## #   reply_to_screen_name <chr>, is_quote <lgl>, is_retweet <lgl>,
## #   favorite_count <int>, retweet_count <int>, quote_count <int>,
## #   reply_count <int>, hashtags <list>, symbols <list>, urls_url <list>,
## #   urls_t.co <list>, urls_expanded_url <list>, media_url <list>,
## #   media_t.co <list>, media_expanded_url <list>, media_type <list>,
## #   ext_media_url <list>, ext_media_t.co <list>, ext_media_expanded_url <list>,
## #   ext_media_type <chr>, mentions_user_id <list>, mentions_screen_name <list>,
…
stock2

## # A tibble: 100 x 90
##    user_id   status_id   created_at          screen_name  text           source 
##    <chr>     <chr>       <dttm>              <chr>        <chr>          <chr>  
##  1 12832190 1375522355 2021-03-26 18:57:40 AndreasErne "@SNICKERS @S Twitte
##  2 12832190 1375518945 2021-03-26 18:44:07 AndreasErne "@ACInvestorB Twitte
##  3 12832190 1375519540 2021-03-26 18:46:29 AndreasErne "#RuleOfLaw \ Twitte
##  4 13611753 1375522270 2021-03-26 18:57:19 HeelzHouse   "@ladygaga FI Twitte
##  5 13611753 1375519486 2021-03-26 18:46:16 HeelzHouse   "@OccupyWallS Twitte
##  6 13611753 1375518910 2021-03-26 18:43:58 HeelzHouse   "@MileyCyrus  Twitte
##  7 13611753 1375520905 2021-03-26 18:51:54 HeelzHouse   "@SAGawards f Twitte
##  8 13611753 1375520575 2021-03-26 18:50:35 HeelzHouse   "@NickCannon  Twitte
##  9 13611753 1375519669 2021-03-26 18:46:59 HeelzHouse   "@OccupyLondo Twitte
## 10 13611753 1375521149 2021-03-26 18:52:52 HeelzHouse   "@mcuban figh Twitte
## #  with 90 more rows, and 84 more variables: display_text_width <dbl>,
## #   reply_to_status_id <chr>, reply_to_user_id <chr>,
## #   reply_to_screen_name <chr>, is_quote <lgl>, is_retweet <lgl>,
## #   favorite_count <int>, retweet_count <int>, quote_count <int>,
## #   reply_count <int>, hashtags <list>, symbols <list>, urls_url <list>,
## #   urls_t.co <list>, urls_expanded_url <list>, media_url <list>,
## #   media_t.co <list>, media_expanded_url <list>, media_type <list>,
## #   ext_media_url <list>, ext_media_t.co <list>, ext_media_expanded_url <list>,
## #   ext_media_type <chr>, mentions_user_id <list>, mentions_screen_name <list>,
…
process each set of tweets into tidy text obtaining username and text

tweets.stock1 <- stock1 %>% select(text)
tweets.stock1

## # A tibble: 100 x 1
##    text                                                                         
##    <chr>                                                                        
##  1 "@NStocks96 I keep waiting for $AAPL to turn around, but doesn't seem like i
##  2 "Make or break  $Tsla $Amzn $Aapl $Nflx https://t.co/9W486gDCR8"           
##  3 "Ohhhhh. They went stop hunting on $aapl. Those dirty dogs."                 
##  4 "$AAPL \nWatching "                                                      
##  5 "@CashApp $Handsomehunnie &amp; Apple $AAPL"                                 
##  6 "$NFLX $SPY $AMC $QQQ $AMD $TSLA $AAPL $NVDA $BABA\n\nGuys, Another great we
##  7 "@ShoucairHassan @TheMarkCooke It's a total rebellion on tech/growth, some m
##  8 "Anybody see the new \"CARIAD\" commercial that VW just tweeted out. Interes
##  9 "$AAPL $TSLA NEW ARTICLE : Elon Musk posts tweet that Tesla could soon be bi
## 10 "$fubo $pltr $aapl $arkk $nio https://t.co/JdLjDWL8EC"                       
## #  with 90 more rows

tweets.stock2 <- stock2 %>% select(text)
tweets.stock2

## # A tibble: 100 x 1
##    text                                                                         
##    <chr>                                                                        
##  1 "@SNICKERS @SlimJim @SNICKERS you should give some #love to the #AMCTheatres
##  2 "@ACInvestorBlog #HODL the Fraking line \nThe #AMC $AMC here to stay the cou
##  3 "#RuleOfLaw \n#investing your living expenses is \nA BIG NO\n#RULEOFTHUMB \n
##  4 "@ladygaga FIGHT for the 99% and buy $AMC and $GME stock!"                   
##  5 "@OccupyWallSt fight with the 99% and buy $AMC and $GME stock! Cripple the h
##  6 "@MileyCyrus fight with the 99% and buy $AMC and $GME stock!!"               
##  7 "@SAGawards fight for the 99% and buy $AMC and $GME stock!"                  
##  8 "@NickCannon fight with the 99% and buy $AMC and $GME stock! Cripple the hed
##  9 "@OccupyLondon Fight with the 99% and buy $AMC and $GME stock! Cripple the h
## 10 "@mcuban fight for the 99% and buy $AMC $GME!"                               
## #  with 90 more rows
…
#remove links manually
tweets.stock2$stripped_text <- gsub('http\\S+|\\$\\S+', "", tweets.stock2$text)

# create a token for each word in stripped_text (using unnest_tokens to remove punctuations. By default, to_lower is true)
tweets.stock2_words <- tweets.stock2 %>% select(stripped_text) %>% unnest_tokens(word, stripped_text)

# remove stop words 
tweets.stock2_filtered <- tweets.stock2_words %>% anti_join(stop_words)

## Joining, by = "word"

(tweets.stock2_filtered)

## # A tibble: 736 x 1
##    word       
##    <chr>      
##  1 snickers   
##  2 slimjim    
##  3 snickers   
##  4 love       
##  5 amctheatres
##  6 guys       
##  7 sell       
##  8 tons       
##  9 movies     
## 10 support    
## #  with 726 more rows
…
#bing sentiment analysis
bing_stock1 = tweets.stock1_filtered %>%
  inner_join(get_sentiments("bing")) %>%
  count(word, sentiment, sort=TRUE) %>%
  ungroup()

## Joining, by = "word"

bing_stock1

## # A tibble: 31 x 3
##    word     sentiment     n
##    <chr>    <chr>     <int>
##  1 discord  negative     10
##  2 free     positive      8
##  3 gain     positive      3
##  4 gains    positive      3
##  5 break    negative      2
##  6 gem      positive      2
##  7 hedge    negative      2
##  8 patience positive      2
##  9 ready    positive      2
## 10 safe     positive      2
## #  with 21 more rows

bing_stock2 = tweets.stock2_filtered %>%
  inner_join(get_sentiments("bing")) %>%
  count(word, sentiment, sort=TRUE) %>%
  ungroup()

## Joining, by = "word"

bing_stock2

## # A tibble: 38 x 3
##    word         sentiment     n
##    <chr>        <chr>     <int>
##  1 gain         positive      5
##  2 free         positive      4
##  3 hedge        negative      4
##  4 love         positive      4
##  5 cripple      negative      3
##  6 loss         negative      3
##  7 chill        negative      2
##  8 manipulation negative      2
##  9 attack       negative      1
## 10 bad          negative      1
## #  with 28 more rows
…
